{
  "kind": "collectionType",
  "collectionName": "works",
  "info": {
    "singularName": "work",
    "pluralName": "works",
    "displayName": "work",
    "description": ""
  },
  "options": {
    "draftAndPublish": true
  },
  "pluginOptions": {},
  "attributes": {
    "cover_image": {
      "type": "media",
      "multiple": false,
      "required": false,
      "allowedTypes": [
        "images",
        "files",
        "videos",
        "audios"
      ]
    },
    "title": {
      "type": "string"
    },
    "slug": {
      "type": "uid",
      "targetField": "title"
    },
    "tags": {
      "type": "relation",
      "relation": "manyToMany",
      "target": "api::tag.tag",
      "inversedBy": "works"
    },
    "hidden_keywords": {
      "type": "relation",
      "relation": "manyToMany",
      "target": "api::keyword.keyword",
      "mappedBy": "works"
    },
    "visibility": {
      "type": "boolean",
      "default": true,
      "required": true
    },
    "priority": {
      "type": "float",
      "default": 1,
      "required": true
    },
    "content": {
      "type": "richtext"
    }
  }
}
